mux41/waveform.vcd
$version Generated by VerilatedVcd $end
$timescale 1ps $end

 $scope module Top $end
  $var wire  2 ' s [1:0] $end
  $var wire  1 # x0 $end
  $var wire  1 $ x1 $end
  $var wire  1 % x2 $end
  $var wire  1 & x3 $end
  $var wire  1 ( y $end
  $scope module mux41 $end
   $var wire  2 ' s [1:0] $end
   $var wire  1 # x0 $end
   $var wire  1 $ x1 $end
   $var wire  1 % x2 $end
   $var wire  1 & x3 $end
   $var wire  1 ( y $end
  $upscope $end
 $upscope $end
$enddefinitions $end


#0
0#
0$
0%
0&
b11 '
0(
#1
1$
b01 '
1(
#2
1%
b11 '
0(
#3
1#
0$
0%
1&
b10 '
#4
1%
b11 '
1(
#5
1$
b01 '
#6
0#
0&
b11 '
0(
#7
1#
0$
1&
b00 '
1(
#8
0#
1$
0&
0(
#9
0%
#10
1%
1&
b10 '
1(
#11
#12
1#
0&
#13
0#
0%
1&
b11 '
#14
1#
0$
0&
b00 '
#15
0#
1$
1%
b01 '
#16
1&
b00 '
0(
#17
1#
1(
#18
0$
0%
0&
b10 '
0(
#19
0#
1$
#20
1#
1&
b00 '
1(
#21
0#
0$
1%
0&
b10 '
#22
1&
b01 '
0(
#23
1$
0%
b10 '
#24
0&
b01 '
1(
#25
0$
0(
#26
1#
1$
1&
b11 '
1(
#27
0#
0$
1%
b00 '
0(
#28
1#
0%
b11 '
1(
#29
1$
b10 '
0(
#30
0#
1%
0&
b00 '
#31
1#
0%
1&
b01 '
1(
#32
0$
1%
0&
b00 '
#33
0#
0%
1&
0(
#34
0&
b11 '
#35
1#
1$
b00 '
1(
#36
0$
1%
b01 '
0(
#37
1$
0%
b11 '
#38
1%
b01 '
1(
#39
0$
0%
1&
b11 '
#40
0#
1$
0&
0(
#41
1#
b01 '
1(
#42
0#
b11 '
0(
#43
1#
1%
1&
b01 '
1(
#44
0#
0$
0(
#45
1$
0&
b10 '
1(
#46
1#
0$
0%
1&
0(
#47
0&
b00 '
1(
#48
1%
1&
#49
0%
0&
b01 '
0(
